{
  "endpoints": [
    {
      "name": "User Login with email",
      "event": [
        {
          "listen": "test",
          "script": {
            "type": "text/javascript",
            "exec": [
              "var jsonData = JSON.parse(responseBody);",
              "postman.setEnvironmentVariable(\"token\", jsonData.response.token);",
              "postman.setEnvironmentVariable(\"refresh\", jsonData.response.refresh);"
            ]
          }
        }
      ],
      "request": {
        "method": "POST",
        "description": "Endpoint to login in the app",
        "header": [],
        "body": {
          "mode": "formdata",
          "formdata": [
            {
              "key": "password",
              "value": "{{password}}",
              "description": "",
              "type": "text"
            },
            {
              "key": "email",
              "value": "{{email}}",
              "description": "",
              "type": "text"
            }
          ]
        },
        "url": {
          "raw": "{{url}}/auth/user",
          "host": [
            "{{url}}"
          ],
          "path": [
            "auth",
            "user"
          ]
        }
      },
      "response": []
    },
    {
      "name": "Driver Login with email",
      "event": [
        {
          "listen": "test",
          "script": {
            "type": "text/javascript",
            "exec": [
              "var jsonData = JSON.parse(responseBody);",
              "postman.setEnvironmentVariable(\"token\", jsonData.response.token);",
              "postman.setEnvironmentVariable(\"refresh\", jsonData.response.refresh);"
            ]
          }
        }
      ],
      "request": {
        "method": "POST",
        "description": "Endpoint to login in the app",
        "header": [],
        "body": {
          "mode": "formdata",
          "formdata": [
            {
              "key": "password",
              "value": "{{password}}",
              "description": "",
              "type": "text"
            },
            {
              "key": "email",
              "value": "{{email}}",
              "description": "",
              "type": "text"
            }
          ]
        },
        "url": {
          "raw": "{{url}}/auth/driver",
          "host": [
            "{{url}}"
          ],
          "path": [
            "auth",
            "driver"
          ]
        }
      },
      "response": []
    },
    {
      "name": "Refresh Token",
      "event": [
        {
          "listen": "test",
          "script": {
            "type": "text/javascript",
            "exec": [
              "var jsonData = JSON.parse(responseBody);",
              "postman.setEnvironmentVariable(\"token\", jsonData.response.token);",
              "postman.setEnvironmentVariable(\"refresh\", jsonData.response.refresh);"
            ]
          }
        }
      ],
      "request": {
        "method": "GET",
        "description": "Endpoint to refresh the authentication tokens",
        "header": [
          {
            "key": "Authorization",
            "value": "Bearer {{refresh}}"
          }
        ],
        "body": {},
        "url": {
          "raw": "{{url}}/auth/token",
          "host": [
            "{{url}}"
          ],
          "path": [
            "auth",
            "token"
          ]
        }
      },
      "response": []
    }
  ]
}
