{
  "endpoints": [
    {
      "name": "Check if server is up and running",
      "request": {
        "method": "GET",
        "description": "Endpoint to check server status",
        "header": [],
        "body": {},
        "url": {
          "raw": "{{url}}/status",
          "host": [
            "{{url}}"
          ],
          "path": [
            "status"
          ]
        }
      },
      "response": []
    }
  ]
}
