{
  "data": [
    {
      "enabled": true,
      "key": "firstName",
      "value": "Luis",
      "type": "text"
    },
    {
      "enabled": true,
      "key": "lastName",
      "value": "Padilla",
      "type": "text"
    },
    {
      "enabled": true,
      "key": "email",
      "value": "luis.padilla@dnamicworld.com",
      "type": "text"
    },
    {
    "enabled": true,
    "key": "phone",
    "value": "+50685736264",
    "type": "text"
    }
  ]
}
