{
  "data": [
    {
      "enabled": true,
      "key": "password",
      "value": "dnamic123",
      "type": "text"
    },
    {
      "enabled": true,
      "key": "facebookId",
      "value": "10153287578873772",
      "type": "text"
    },
    {
      "enabled": true,
      "key": "others[gender]",
      "value": "Male",
      "type": "text"
    },
    {
      "enabled": true,
      "key": "others[birthday]",
      "value": "12/11/92",
      "type": "text"
    },
    {
      "enabled": true,
      "key": "facebookToken",
      "value": "EAAXIThixPvEBAF2AuZANy5lrsuPW8xWikLLZAu1LJrYyiZCQu1D7hT3GZCMZAt5owD1F11Ez2WxndMgIZC35lUyP1sea5ZAkUEjeepJ71rw3DZA8tD3iNmAdrLCkowHZB95ZAWc9heFrhW4yn6qUxZCrlgZA4raNxwis8RwM9zQAdHVB4EQMQ57sYXGJbcZBW38QjVv0ZD",
      "type": "text"
    },
    {
      "enabled": true,
      "key": "newFirstName",
      "value": "Rafael",
      "type": "text"
    },
    {
      "enabled": true,
      "key": "userQuery",
      "value": "firstName=Rafael",
      "type": "text"
    },
    {
      "enabled": true,
      "key": "userId",
      "value": "5a7234f866cf1e5e7a304fbb",
      "type": "text"
    },
    {
      "enabled": true,
      "key": "role[active]",
      "value": "true",
      "type": "text"
    },
    {
      "enabled": true,
      "key": "role[key]",
      "value": "superAdmin",
      "type": "text"
    },
    {
      "enabled": true,
      "key": "rate",
      "value": "4.5",
      "type": "text"
    }
  ]
}
